results/simx.vcd
$date
	Sat Dec 19 21:16:56 2020
$end
$version
	GTKWave Analyzer v3.3.104 (w)1999-2020 BSI
$end
$timescale
	1ps
$end
$scope module scr1_top_tb_ahb $end
$scope module i_top $end
$scope module i_core_top $end
$scope module i_pipe_top $end
$scope module i_pipe_exu $end
$scope module i_ialu $end
$var wire 32 / exu2ialu_main_op1_i[31:0] $end
$var wire 32 0 exu2ialu_main_op2_i[31:0] $end
$var wire 32 1 ialu2exu_main_res_o[31:0] $end
$upscope $end
$upscope $end
$scope module i_pipe_ifu $end
$var wire 1 " clk $end
$var wire 32 2 exu2ifu_pc_new_i[31:0] $end
$upscope $end
$scope module i_pipe_idu $end
$var wire 32 & instr[31:0] $end
$scope module idu2exu_cmd_o $end
$var wire 5 + rs1_addr[4:0] $end
$upscope $end
$var wire 2 ' instr_type[1:0] $end
$var wire 5 ) rvi_opcode[6:2] $end
$var wire 1 ( rvi_illegal $end
$upscope $end
$scope module i_pipe_ifu $end
$var wire 3 % instr_type[2:0] $end
$upscope $end
$scope module i_pipe_idu $end
$scope module idu2exu_cmd_o $end
$var wire 32 , imm[31:0] $end
$upscope $end
$upscope $end
$scope module i_pipe_ifu $end
$var wire 1 # ifu_fetch_req $end
$var wire 1 $ ifu_fsm_next $end
$upscope $end
$scope module i_pipe_idu $end
$scope module idu2exu_cmd_o $end
$var wire 5 * rd_addr[4:0] $end
$upscope $end
$upscope $end
$scope module i_pipe_exu $end
$scope module idu2exu_cmd_i $end
$var wire 3 - rd_wb_sel[2:0] $end
$upscope $end
$scope module i_ialu $end
$var wire 5 . exu2ialu_cmd_i[4:0] $end
$upscope $end
$upscope $end
$upscope $end
$upscope $end
$upscope $end
$upscope $end
$enddefinitions $end
#1
$dumpvars
b1000 *
0(
b0 -
0"
b0 /
b0 0
b0 '
b0 2
b0 .
b0 )
0$
b0 &
b0 %
b0 1
b10 +
b0 ,
0#
$end
#2
1"
b1000000000 2
#7
0"
#12
1"
#17
0"
#22
1"
#27
0"
#32
1"
#37
0"
#42
1"
#47
0"
#52
1"
#57
0"
#62
1"
#67
0"
#72
1"
#77
0"
#82
1"
#87
0"
#92
1"
#97
0"
#102
1"
#107
0"
#112
1"
1#
1$
#117
0"
#122
1"
0#
b1 %
#127
0"
#132
1"
b110 -
b1010 *
b11 '
b10 %
b10111100010100 ,
b11100 )
b11110001010000000010010101110011 &
b0 +
#137
0"
#142
1"
b1010 +
b0 *
b0 -
b11000100010100 2
b1110000100000001 &
b0 ,
b1 '
b1 %
b0 )
#147
0"
#152
1"
b11 -
b1001 .
b11100 *
b0 +
b0 %
b1000000100 2
b100111000000001 &
b11111111111111111111111111111110 1
#157
0"
#162
1"
b0 1
b101 *
b101 )
b0 .
b10 -
b1010010111 &
b1 %
b1000000110 2
b11 '
#167
0"
#172
1"
b100 )
b1000001000 2
b1 -
b11111111111111111111111110111000 ,
b101 +
b11111011100000101000001010010011 &
#177
0"
#182
1"
b110000010100101001000001110011 &
b100 .
b111000000 1
b1000001000 /
b11111111111111111111111110111000 0
b0 *
b110 -
b11100 )
b111000100 2
b1001100000101 ,
b10 %
#187
0"
#192
1"
b1 %
b0 0
b0 .
b100010100000101 &
b0 /
b1 '
b0 1
b1 ,
b11 -
b0 +
b1010 *
b1010100010100 2
b1 )
#197
0"
#202
1"
b11111 )
b10 '
b0 %
b10101111110 &
b1000010100 2
b1 -
b11111 ,
b1010 +
#207
0"
#212
1"
b1 %
b11111 0
b11000 )
b11 '
b1100 .
b1 /
b10000 ,
b1000110100 2
b10000000000000000000000000000000 1
b1010100100001100011 &
b0 -
b10000 *
#217
0"
#222
1"
b0 *
b110 .
b0 +
b10 %
b0 0
b11 )
b1000101000 2
b10000000000000000000000000000000 /
b0 ,
b1111111100000000000000001111 &
1#
b1 1
#227
0"
#232
1"
b0 1
b0 .
b10000 *
b1 %
b1010 +
0#
b1000111000 2
b11000 )
b1010100100001100011 &
b0 /
b10000 ,
#237
0"
#242
1"
b0 ,
b101 *
b1 -
b0 +
b1010010011 &
b100 )
#247
0"
#252
1"
b11000 )
b11010 ,
b100 .
b101000110101100011 &
b11010 *
b101 +
b1000101000 2
b0 -
#257
0"
#262
1"
b110 -
b11 %
b1 1
b1000100000101 ,
b11100 )
b1001000110 2
b1000 .
1#
b10000010100101001000001110011 &
b0 *
#267
0"
#272
1"
b0 1
b111 %
b1001101001010 2
0#
b0 .
#277
0"
#282
1"
b101000100000101 ,
b10000010100100101000001110011 &
b100 +
b101 %
#287
0"
#292
1"
b0 %
b0 +
b110000000000000101000001110011 &
b101001100000000 ,
#297
0"
#302
1"
b100000000000000000 ,
b10 -
b101 *
b100000001010010111 &
b101 )
b100 +
b101010101000110 2
b101 %
#307
0"
#312
1"
b0 %
b0 ,
b0 +
b1010010111 &
#317
0"
#322
1"
b110000000000001000001010010011 &
b1 -
b101 %
b1 +
b1100000000 ,
b1001001010 2
b100 )
#327
0"
#332
1"
b101011000101000001010010011 &
b1001001110 2
b1010110 ,
b0 %
b101 +
#337
0"
#342
1"
b1 +
b110 -
b1010110 0
b100 .
b11100 )
b1010100000 1
b101 %
b0 *
b1001001010 /
b1000000000000 ,
b1001000001110011 &
b1010100100 2
#347
0"
#352
1"
b1010101000 2
b101 +
b0 0
b110100000100101001000001110011 &
b0 %
b0 1
b1001101000001 ,
b0 /
#357
0"
#362
1"
b100 +
b1010110010010 2
b0 .
b10000001010110 ,
b101011000100010010101110011 &
b1010 *
b101 %
#367
0"
#372
1"
b0 %
b1010110010110 2
b0 +
b11110001010000000010010101110011 &
b10111100010100 ,
#377
0"
#382
1"
b110100000100100000000001110011 ,
b0 -
1(
b11000101101010 2
b100 %
b110100000100100000000001110011 &
b100 +
b0 *
#387
0"
#392
1"
b11000101101110 2
b1100000010 ,
0(
b0 +
b110000001000000000000001110011 &
b0 %
#397
0"
#402
1"
b10 %
b0 ,
b1000 *
b0 )
b1010100000 2
b0 '
b0 &
b10 +
#407
0"
#412
1"
b0 %
1#
#417
0"
#422
1"
0#
b1 %
#427
0"
#432
1"
b11 %
b0 +
b10 )
b111 *
b1 -
b1110001011 &
b11 '
#437
0"
#442
1"
b1 '
b110 *
b0 )
b101 %
b100001100000001 &
b10111 .
b11 -
#447
0"
#452
1"
b0 -
b11000 )
b1100000 ,
b1010100100 2
b0 *
b11 '
b110 +
b0 .
b0 %
b110011100110001000001100011 &
#457
0"
#462
1"
b1000011000000010000001110001011 &
b10 )
b1 -
b111 *
b10000110000 ,
b1100000110 2
b101 %
b10 +
b1001 .
b11111111111111111111111111111110 1
#467
0"
#472
1"
b11111111111 ,
b1111111111100000000001110001011 &
b1100001010 2
b0 +
b0 %
#477
0"
#482
1"
b101 %
b1100111 ,
b11111111111 1
b110 *
b100 )
b110 +
b10111 .
b11111111111 0
b101010101000 2
b110011100110000001100010011 &
#487
0"
#492
1"
b1111111111100000000001100010011 &
b0 %
b0 1
b11111111111 ,
b101010101100 2
b0 +
b0 0
#497
0"
#502
1"
b11111111111 0
b11111111111 1
b10100 *
b101 %
b1111111111100000001101001100011 &
b0 -
b11111110100 ,
b11000 )
b100 .
#507
0"
#512
1"
b100011100110001101001100011 &
b0 0
b0 %
b0 1
b110 +
b1010100 ,
b101010110000 2
#517
0"
#522
1"
b1100000110 2
b100 %
b11111111111 /
b1001 .
b11111111111 0
b1111111111100000000001110001011 &
b111 *
b11111111111 ,
b10 )
b1 -
b0 +
b11111111111111111111111111111110 1
#527
0"
#532
1"
b11111111111100000000001110001011 &
b0 %
b1100001010 2
b0 0
b0 /
b111111111111 ,
#537
0"
#542
1"
b1000000000000 ,
b111111111111 0
b111111111111 1
b1 '
b110001100000101 &
b1001010110100 2
b11 %
b10111 .
b110 *
b11 -
b1 )
#547
0"
#552
1"
b11111 )
b101 %
b0 1
b11111111111111111111111111111111 ,
b0 0
b1001010111010 2
b1001101111101 &
b1 -
b110 +
b0 .
#557
0"
#562
1"
b100 .
b1010111010 2
b111111111111 1
b11000 )
b0 %
b11111111111111111111111111111111 0
b11 '
b1001000 ,
b100011100110001010001100011 &
b1000000000000 /
b0 -
b1000 *
#567
0"
#572
1"
b111 *
b11111111111111111111111111111110 1
b1001 .
b1100000110 2
b111111111111 0
b10 )
b100 %
b1 -
b100110111 ,
b11010 +
b111111111111 /
b10011011111010000001110001011 &
#577
0"
#582
1"
b11111111111100110000001110001011 &
b0 0
b1100001010 2
b0 /
b0 %
b110 +
b111111111111 ,
#587
0"
#592
1"
b1000000000000 ,
b1 )
b111111111111 1
b1 '
b110 *
b111111111111 0
b10111 .
b110001100000101 &
b0 +
b1001011000000 2
b11 -
b11 %
b111111111111 /
#597
0"
#602
1"
b0 /
b0 .
b0 1
b11111111111111111111111111111111 ,
b11111 )
b0 0
b101 %
b110 +
b1001101111101 &
b1 -
b1001011000110 2
#607
0"
#612
1"
b1011000110 2
b11000 )
b111111111111 1
b1000000000000 /
b100 .
b111100 ,
b11 '
b11100 *
b0 -
b0 %
b11111111111111111111111111111111 0
b10011100110001111001100011 &
#617
0"
#622
1"
b10011011111011000001110001011 &
b11111111111111111111111111111110 1
b1100000110 2
b10 )
b100110111 ,
b111111111111 /
b1001 .
b111111111111 0
b1 -
b111 *
b100 %
b11011 +
#627
0"
#632
1"
b111 +
b0 /
b111000001110001011 &
b0 ,
b1100001010 2
b0 %
b0 0
#637
0"
#642
1"
b0 1
b1 '
b0 +
b100001100000001 &
b111111111111 /
b0 )
b1 %
b1011001110 2
b10111 .
b110 *
b11 -
#647
0"
#652
1"
b0 -
b0 /
b110010 ,
b10011100110001100101100011 &
b11 '
b110 +
b10010 *
b11 %
b11000 )
b0 .
b1011010010 2
#657
0"
#662
1"
b1100000110 2
b1 '
b11 -
b11111111111111111111111111111110 1
b111001111111101 &
b11111111111111111111000000000000 ,
b1001 .
b111 *
b0 +
b11111 )
b101 %
#667
0"
#672
1"
b0 %
b111000001100001011 &
b11 '
b11111111111111111111001011011000 2
b0 1
b1 -
b10 )
b0 .
b0 ,
b111 +
b110 *
#677
0"
#682
1"
b1000 *
b11111111111111111111000000000000 1
b1110011111111010001010001100011 &
b101 %
b1011011010 2
b11111111111111111111000000000000 /
b11010 +
b11000 )
b0 -
b11100101000 ,
b10111 .
#687
0"
#692
1"
b1011011110 2
b0 1
b0 %
b10011100110001010001100011 &
b101000 ,
b110 +
b0 /
#697
0"
#702
1"
b11111111111111111111000000000000 /
b101 %
b1001 .
b11111111111111111111000000000000 0
b110 *
b11111111111111111111111111111110 1
b1100000110 2
b111 +
b0 ,
b111000001100001011 &
b1 -
b10 )
#707
0"
#712
1"
b0 /
b0 %
b0 0
b1100001010 2
b11111111111100111000001100001011 &
b111111111111 ,
#717
0"
#722
1"
b100111 ,
b101 %
b11111111111111111111111111111111 1
b10111 .
b100 )
b11111111111111111111000000000000 /
b111 *
b10011100110000001110010011 &
b110 +
b1001011100000 2
b111111111111 0
#727
0"
#732
1"
b0 0
b0 /
b0 1
b11111111111111111111111111111111 ,
b0 %
b1001011100100 2
b0 +
b11111111111100000000001110010011 &
#737
0"
#742
1"
b11111111111100110001111001100011 &
b11111111111111111111011111111100 ,
b11111111111111111111111111111111 1
b11111111111111111111111111111111 0
b11000 )
b100 .
b110 +
b11100 *
b0 -
b1011100100 2
b101 %
#747
0"
#752
1"
b0 %
b11100 ,
b11100110001111001100011 &
b0 0
b0 1
b1011101000 2
#757
0"
#762
1"
b1100000110 2
b11111111111111111111111111111111 0
b101 %
b10 )
b11111111111111111111111111111111 /
b11111111111100000000000000001011 &
b111111111111 ,
b11111111111111111111111111111110 1
b0 +
b1001 .
b1 -
b0 *
#767
0"
#772
1"
b11111111111100110000000000001011 &
b0 %
b1100001010 2
b0 0
b0 /
b110 +
#777
0"
#782
1"
b111111111111 0
b101 %
b110 *
b11100110100001100110011 &
b1001011101100 2
b1100 )
b11111111111111111111111111111111 /
b11111111111111111111111111111111 1
b0 ,
b10111 .
#787
0"
#792
1"
b1001011110000 2
b0 %
b0 0
b11000110100001100110011 &
b0 /
b0 1
#797
0"
#802
1"
b11111111111111111111111111111111 0
b11 .
b101 %
b10000 *
b11111111111111111111111111111111 /
b11111111111111111111011111110000 ,
b11000 )
b11111111111100110001100001100011 &
b0 -
#807
0"
#812
1"
b0 %
b0 +
b1001011110100 2
b0 0
b11000000001100001100011 &
b0 /
b10000 ,
#817
0"
#822
1"
b11000110000000000001111 ,
b1100000110 2
b11111111111111111111111111111110 1
b100 %
b110 +
b1001 .
b0 *
b11000110000000000001111 &
b11 )
1(
#827
0"
#832
1"
0(
b0 +
b1100001010 2
b0 ,
b0 %
b1111111100000000000000001111 &
#837
0"
#842
1"
b1000010111110010 &
b1 -
b0 1
b10 '
b11 %
b11100 )
b0 .
b1011 *
#847
0"
#852
1"
b1010 *
b11 -
b1100001110 2
b100010100000001 &
b100 .
b0 )
b1 '
b101 %
#857
0"
#862
1"
b0 %
b1100000000 2
b0 -
b0 *
b11 '
b11100 )
b1110011 &
b0 .
#867
0"
#872
1"
b1000101000000010000000000001111 ,
b10 +
1(
b111000000 2
b100 %
b1000101000000010000000000001111 &
1#
b11 )
#877
0"
#882
1"
b0 )
b0 ,
0(
b11 -
b0 +
0#
b1 %
b100010100000001 &
b1010 *
b1 '
#887
0"
#892
1"
b11 '
b110 -
b11100 )
b10001101000010 ,
b1110 *
b110100001000000010011101110011 &
b11 %
#897
0"
#902
1"
b100 %
b1000 )
b10010100000010 2
b11 -
b1 '
b100011110100001 &
b1111 *
b1000 ,
#907
0"
#912
1"
b100100 ,
b0 -
b0 %
b111001100 2
b11000 )
b100 *
b1110 +
b10111101110000001001100011 &
b11 '
#917
0"
#922
1"
b1 '
b111101010 2
b1000 .
b1001 ,
b1 %
b11 -
b100011110100101 &
b1001 )
b1011 /
b1000 0
b0 +
b1111 *
#927
0"
#932
1"
b11110 *
b11 %
b111010010 2
b11 '
b11110 ,
b0 .
b1110 +
b11000 )
b0 -
b111101110000111101100011 &
b0 0
b0 /
#937
0"
#942
1"
b1011 /
b1011 ,
b101 %
b1111 *
b1 '
b111101010 2
b1001 0
b1011 )
b1000 .
b0 +
b100011110101101 &
b11 -
#947
0"
#952
1"
b0 -
b11 '
b11000 ,
b0 /
b11000 *
b0 %
b111101110000110001100011 &
b11000 )
b111011010 2
b0 0
b1110 +
b0 .
#957
0"
#962
1"
b1000 .
b1110 *
b1 1
b1 -
b1011 /
b10001111010 ,
b11010 +
b100 )
b100 %
b1000111101011010000011100010011 &
b1011 0
1#
b111101010 2
#967
0"
#972
1"
b1000000010 2
b0 /
b1111 *
b1 '
b11 -
0#
b1011 )
b1011 ,
b0 +
b0 0
b111 %
b100011110101101 &
#977
0"
#982
1"
b1100011000110000000001101111 &
b11 '
b0 *
b101 %
b11011 )
b100 -
b110000000011000110 ,
b110 +
#987
0"
#992
1"
b0 +
b10111011000000000000001101111 &
b101110110 ,
b0 %
#997
0"
#1002
1"
b101 %
b1101100000 2
b0 .
b110 +
b0 1
b1110001 ,
b111000100110000000000010011 &
1#
b1 -
b100 )
#1007
0"
#1012
1"
b11011 )
b0 +
b1 %
b10011010110 2
b100 -
b101110110 ,
0#
b10111011000000000000001101111 &
#1017
0"
#1022
1"
b1010010111 &
b101 )
b101 *
b0 ,
b10 -
#1027
0"
#1032
1"
b1 -
b11011001010000101000001010010011 &
b11 %
b101 +
b11111111111111111111110110010100 ,
b1101100000 2
b100 )
#1037
0"
#1042
1"
b0 )
b101 %
b10 '
b1101100000 /
b0 -
b1000001010000010 &
b100 .
b11111000 2
b11110100 1
b0 ,
b11111111111111111111110110010100 0
b0 *
#1047
0"
#1052
1"
b10011 &
b11 '
b100 )
b0 %
b1 -
b0 /
b0 0
b0 .
1#
b0 +
b11110100 2
b0 1
#1057
0"
#1062
1"
b0 -
b10 '
b1000001010000010 &
b1 %
b0 )
b100 .
b101 +
0#
#1067
0"
#1072
1"
b1 -
b10011 &
b11 '
b0 +
b100 )
#1077
0"
#1082
1"
b11011 )
b1101111 &
b100 -
#1087
0"
#1092
1"
b0 -
1#
b11111 *
b10 %
b11111111111111111111111111111111 &
1(
b11111 )
b11111 +
b11111000 2
b11111111111111111111111111111111 ,
b0 .
#1097
0"
#1102
1"
0#
b1 %
b11110110 2
#1107
0"
#1112
1"
0(
b100 -
b0 *
b1101111 &
b11011 )
b0 ,
b0 +
